1 12 20
1 534 144
1 962 179
1 579 144
1 434 144
1 163 122
1 959 179
1 499 144
1 872 179
1 358 144
1 200 125
1 769 171
1 435 144
1 66 113
1 938 179
1 212 125
1 584 144
1 258 128
1 445 144
1 265 128
1 757 171
1 181 125
1 5 8
1 807 171
1 195 125
1 295 128
1 736 171
1 421 144
1 520 144
1 688 145
1 325 131
1 39 112
1 988 179
1 193 125
1 817 171
1 631 144
1 518 144
1 240 128
1 291 128
1 947 179
1 568 144
1 476 144
1 732 171
1 914 179
1 364 144
1 917 179
1 186 125
1 895 179
1 211 125
1 521 144
1 359 144
1 400 144
1 247 128
1 915 179
1 478 144
999250 999999 396
999708 999999 259
999219 999999 396
999234 999999 396
999232 999999 396
999407 999999 290
999035 999999 396
999982 999999 259
999374 999999 290
999104 999999 396
999875 999999 259
999309 999999 290
999520 999999 290
999102 999999 396
999370 999999 290
999540 999999 290
999369 999999 290
999139 999999 396
999291 999999 396
999500 999999 290
999495 999999 290
999750 999999 259
999878 999999 259
999724 999999 259
999316 999999 290
999736 999999 259
999797 999999 259
999006 999999 396
999281 999999 396
999323 999999 290
999225 999999 396
999171 999999 396
999273 999999 396
999658 999999 290
999297 999999 290
999998 999999 259
999869 999999 259
999610 999999 290
999670 999999 259
999020 999999 396
999593 999999 290
999994 999999 259
999220 999999 396
999704 999999 259
999371 999999 290
999977 999999 259
999015 999999 396
999503 999999 290
999901 999999 259
999371 999999 290
999830 999999 259
999796 999999 259
999563 999999 290
999694 999999 259
999422 999999 290
