1 10 20
100 200 125
201 210 89
900 1000 174
722 745 140
335 837 171
60 828 171
91 497 144
862 980 179
268 288 105
308 827 171
100 959 179
836 991 179
610 710 171
108 250 128
136 933 179
92 229 125
147 455 144
245 939 179
20 806 171
170 526 144
275 478 144
275 906 179
560 738 171
37 889 179
23 132 122
139 504 144
822 924 179
500 546 137
209 644 144
239 910 179
345 742 171
35 187 125
432 891 179
363 839 171
384 660 145
77 128 119
830 942 179
228 988 179
140 551 144
246 592 144
52 859 171
244 543 144
134 271 128
745 877 179
356 891 179
224 866 171
842 967 179
267 582 144
534 727 171
648 827 171
236 658 145
705 830 153
156 471 144
370 424 134
361 425 134
344 995 179
80 490 144
496 623 137
243 691 145
400 735 171
6 975 179
224 953 179
275 497 144
827 910 179
395 729 171
284 797 171
784 946 179
121 264 128
364 596 142
111 362 144
101 812 171
300 762 171
80 570 144
66 209 125
64 731 171
23 55 113
437 891 179
192 660 145
783 936 179
30 685 145
20 257 128
123 824 171
496 784 171
947 981 143
361 540 142
641 945 179
494 766 171
422 442 116
252 289 123
267 694 145
146 891 179
302 727 171
662 967 179
199 718 171
25 991 179
143 671 145
205 832 171
353 827 171
260 790 171
215 428 144
350 790 171
5 852 171
435 503 142
54644 75576 335
451772 818385 509
93545 999244 525
596356 779651 509
87082 755888 509
134226 817122 509
464962 524529 470
253275 293918 407
590324 659265 509
332461 813645 509
32441 459289 449
262771 306385 407
325770 732572 509
558486 765998 509
194499 800795 509
322000 558542 470
50216 472115 449
413792 917554 525
567877 576067 377
356134 558945 470
234406 844291 525
290232 937713 525
72060 289833 443
188625 443416 449
262860 382841 441
598054 834626 509
385298 511574 449
584747 668653 509
832927 943981 525
90470 564519 470
